2018-09-14 13:12:25.001 INFO  (main) [   ] o.e.j.s.Server jetty-9.3.20.v20170531
2018-09-14 13:12:25.579 INFO  (main) [   ] o.a.s.s.SolrDispatchFilter  ___      _       Welcome to Apache Solr™ version 7.2.1
2018-09-14 13:12:25.579 INFO  (main) [   ] o.a.s.s.SolrDispatchFilter / __| ___| |_ _   Starting in standalone mode on port 8983
2018-09-14 13:12:25.579 INFO  (main) [   ] o.a.s.s.SolrDispatchFilter \__ \/ _ \ | '_|  Install dir: /home/jmiguel/Development/hybris/Trail/concerttours/HYBRISCOMM6700P_2-80003492/hybris/bin/ext-commerce/solrserver/resources/solr
2018-09-14 13:12:25.605 INFO  (main) [   ] o.a.s.s.SolrDispatchFilter |___/\___/_|_|    Start time: 2018-09-14T13:12:25.580Z
2018-09-14 13:12:25.606 INFO  (main) [   ] o.a.s.u.StartupLoggingUtils Property solr.log.muteconsole given. Muting ConsoleAppender named CONSOLE
