<?xml version="1.0" encoding="utf-8"?>
<!-- Generator: Adobe Illustrator 16.0.4, SVG Export Plug-In . SVG Version: 6.00 Build 0)  -->
<!DOCTYPE svg PUBLIC "-//W3C//DTD SVG 1.1//EN" "http://www.w3.org/Graphics/SVG/1.1/DTD/svg11.dtd">
<svg version="1.1" xmlns="http://www.w3.org/2000/svg" xmlns:xlink="http://www.w3.org/1999/xlink" x="0px" y="0px"
	 width="40.611px" height="34.355px" viewBox="0 0 40.611 34.355" enable-background="new 0 0 40.611 34.355" xml:space="preserve">
<g id="Kacheln">
</g>
<g id="Logos">
	<g>
		
			<polyline fill="none" stroke="#FFFFFF" stroke-width="1.3" stroke-linecap="round" stroke-linejoin="round" stroke-miterlimit="10" points="
			0.649,0.65 6.105,2.073 6.105,23.504 30.018,23.504 39.961,7.522 12.377,7.522 		"/>
		
			<circle fill="none" stroke="#FFFFFF" stroke-width="1.3" stroke-linecap="round" stroke-linejoin="round" stroke-miterlimit="10" cx="9.183" cy="29.961" r="3.744"/>
		
			<circle fill="none" stroke="#FFFFFF" stroke-width="1.3" stroke-linecap="round" stroke-linejoin="round" stroke-miterlimit="10" cx="26.758" cy="29.961" r="3.744"/>
	</g>
</g>
</svg>
