8796803366942;8796803891230;8797862953579;mediaContainer;;false
8796803432478;8796803923998;8797862986347;mediaContainer;;false
8796803498014;8796803956766;8797863019115;mediaContainer;;false
8796803563550;8796803989534;8797863051883;mediaContainer;;false
