{
  "initArgs":{"ignoreCase":"true"},
  "initializedOn":"2018-09-14T12:13:27.772Z",
  "updatedSinceInit":"2018-09-14T12:14:51.661Z",
  "managedMap":{
    "Angebote":["Sonderangebote"],
    "Videokamera":["Camcorder"],
    "af":["Autofokus"],
    "klein":["kompakt"],
    "mini":["kompakt"]}}