{
    "jsFiles": [{
        "value": "{\"smartEditContainerLocation\":\"/jsTests/e2e/util/commonMockedModule/setApparelStagedUKExperience.js\"}",
        "key": "applications.setApparelStagedUKExperience"
    }, {
        "value": "{\"smartEditContainerLocation\":\"/jsTests/e2e/genericEditor/customViewController.js\"}",
        "key": "applications.customViewModule"
    }, {
        "value": "{\"smartEditContainerLocation\":\"/jsTests/e2e/genericEditor/componentMedia/customViewHTML.js\"}",
        "key": "applications.customViewHTML"
    }]
}